…
problem2_df = tibble(
  x,
  y,
  sum_xy,
  sum_xy_factor,
  sum_xy_numeric
)
```

Here is the data frame:

    ## # A tibble: 1,000 x 5
    ##          x       y sum_xy sum_xy_factor sum_xy_numeric
    ##      <dbl>   <dbl> <lgl>  <fct>                  <dbl>
    ##  1 -1.23   -0.381  FALSE  FALSE                      0
    ##  2  0.175  -0.640  FALSE  FALSE                      0
    ##  3  0.175  -1.39   FALSE  FALSE                      0
    ##  4  0.465  -1.44   FALSE  FALSE                      0
    ##  5  0.0883  1.35   TRUE   TRUE                       1
    ##  6 -0.359  -1.51   FALSE  FALSE                      0
    ##  7 -0.419  -0.0912 FALSE  FALSE                      0
    ##  8  0.0316  0.557  TRUE   TRUE                       1
    ##  9 -1.07    1.22   TRUE   TRUE                       1
    ## 10  1.60   -0.458  TRUE   TRUE                       1
    ## # ... with 990 more rows
…
